{
  "page": 3,
  "total_results": 8,
  "total_pages": 4,
  "results": [
    {
      "popularity": 1237.229,
      "vote_count": 76,
      "video": false,
      "poster_path": "/ugZW8ocsrfgI95pnQ7wrmKDxIe.jpg",
      "id": 724989,
      "adult": false,
      "backdrop_path": "/86L8wqGMDbwURPni2t7FQ0nDjsH.jpg",
      "original_language": "en",
      "original_title": "Hard Kill",
      "genre_ids": [
        28,
        53
      ],
      "title": "Hard Kill",
      "vote_average": 5.1,
      "overview": "The work of billionaire tech CEO Donovan Chalmers is so valuable that he hires mercenaries to protect it, and a terrorist group kidnaps his daughter just to get it.",
      "release_date": "2020-08-25"
    },
    {
      "popularity": 1047.902,
      "vote_count": 163,
      "video": false,
      "poster_path": "/sMO1v5TUf8GOJHbJieDXsgWT2Ud.jpg",
      "id": 438396,
      "adult": false,
      "backdrop_path": "/qGZe9qTuydxyJYQ60XDtEckzLR8.jpg",
      "original_language": "es",
      "original_title": "Orígenes secretos",
      "genre_ids": [
        18,
        53
      ],
      "title": "Unknown Origins",
      "vote_average": 6.1,
      "overview": "In Madrid, Spain, a mysterious serial killer ruthlessly murders his victims by recreating the first appearance of several comic book superheroes. Cosme, a veteran police inspector who is about to retire, works on the case along with the tormented inspector David Valentín and his own son Jorge Elías, a nerdy young man who owns a comic book store.",
      "release_date": "2020-08-28"
    }
  ]
}