{
  "page": 4,
  "total_results": 8,
  "total_pages": 4,
  "results": [
    {
      "popularity": 848.928,
      "vote_count": 482,
      "video": false,
      "poster_path": "/sy6DvAu72kjoseZEjocnm2ZZ09i.jpg",
      "id": 581392,
      "adult": false,
      "backdrop_path": "/gEjNlhZhyHeto6Fy5wWy5Uk3A9D.jpg",
      "original_language": "ko",
      "original_title": "반도",
      "genre_ids": [
        28,
        27,
        53
      ],
      "title": "Peninsula",
      "vote_average": 7.1,
      "overview": "A soldier and his team battle hordes of post-apocalyptic zombies in the wastelands of the Korean Peninsula.",
      "release_date": "2020-07-15"
    },
    {
      "popularity": 819.462,
      "vote_count": 1267,
      "video": false,
      "poster_path": "/TnOeov4w0sTtV2gqICqIxVi74V.jpg",
      "id": 605116,
      "adult": false,
      "backdrop_path": "/qVygtf2vU15L2yKS4Ke44U4oMdD.jpg",
      "original_language": "en",
      "original_title": "Project Power",
      "genre_ids": [
        28,
        80,
        878
      ],
      "title": "Project Power",
      "vote_average": 6.7,
      "overview": "An ex-soldier, a teen and a cop collide in New Orleans as they hunt for the source behind a dangerous new pill that grants users temporary superpowers.",
      "release_date": "2020-08-14"
    }
  ]
}